{
  "type": {
    "color": "#808080",
    "order": 0,
    "name": "Blackout",
    "description": "No production deployments during this blackout period",
    "ghostedDate": 0,
    "id": "00000000-0000-1100-0000-000000000011",
    "version": 0,
    "dateCreated": 0
  },
  "startDate": 1413384452,
  "endDate": 1413394452,
  "isOneDay": false,
  "releases": [],
  "description": "Optional description",
  "name": "Example event",
  "id": "4f47d1fe-f25a-4f9e-a91a-c8fb0668e99a",
  "version": 0,
  "dateCreated": 1421692929323
}Copy
Related reference: