[
    {
        "ID": "001",
        "Name": "Angular", 
        "Image": "angularjs.png" 
    },
 
    {
        "ID": "002",
        "Name": "JSON", 
        "Image": "json.png" 
    },
  
    {
        "ID": "003",
        "Name": "Asp.Net", 
        "Image": "aspnet.png" 
    }
]