{
    "main": {
        "sidebar": {
            "project": "Project",
            "title": "Name of the project."
        },
        "statusbar": {
            "statusbar_empty": "Empty! No entries added yet.",
            "statusbar_ok": "Ok.
        }
    }
}