{
  "credentials" : [
    {
      "id" : "SQLCreds",
      "name" : "SQLCreds",
      "credType" : "DBCreds",
      "properties" : [
        {
          "name" : "DBUserName",
          "value" : "CLEAR[moncs]"
        },
        {
          "name" : "DBPassword",
          "value" : "CLEAR[moncs]"
        },
        {
          "name" : "DBRole",
          "value" : "CLEAR[Normal]"
        }
      ]
    }
  ]
}